…
``` r
library(readxl)
```

## Problem 1

``` r
trash_wheel_df = 
read_excel("./data_files/Trash-Wheel-Collection-Totals-8-6-19.xlsx", sheet = "Mr. Trash Wheel", range= "A2:N406") %>% 
  janitor::clean_names() %>% 
  drop_na(dumpster) 
trash_wheel_df
```

    ## # A tibble: 344 x 14
    ##    dumpster month  year date                weight_tons volume_cubic_yards
    ##       <dbl> <chr> <dbl> <dttm>                    <dbl>              <dbl>
    ##  1        1 May    2014 2014-05-16 00:00:00        4.31                 18
    ##  2        2 May    2014 2014-05-16 00:00:00        2.74                 13
    ##  3        3 May    2014 2014-05-16 00:00:00        3.45                 15
    ##  4        4 May    2014 2014-05-17 00:00:00        3.1                  15
    ##  5        5 May    2014 2014-05-17 00:00:00        4.06                 18
    ##  6        6 May    2014 2014-05-20 00:00:00        2.71                 13
    ##  7        7 May    2014 2014-05-21 00:00:00        1.91                  8
    ##  8        8 May    2014 2014-05-28 00:00:00        3.7                  16
    ##  9        9 June   2014 2014-06-05 00:00:00        2.52                 14
    ## 10       10 June   2014 2014-06-11 00:00:00        3.76                 18
    ## # … with 334 more rows, and 8 more variables: plastic_bottles <dbl>,
    ## #   polystyrene <dbl>, cigarette_butts <dbl>, glass_bottles <dbl>,
    ## #   grocery_bags <dbl>, chip_bags <dbl>, sports_balls <dbl>,
    ## #   homes_powered <dbl>

Round the number of sports balls to the nearest integer and converts the
result to an integer variable

``` r
trash_wheel_df =
trash_wheel_df %>% 
  mutate (
  sports_balls = as.integer(sports_balls)
  )
trash_wheel_df
```

    ## # A tibble: 344 x 14
    ##    dumpster month  year date                weight_tons volume_cubic_yards
    ##       <dbl> <chr> <dbl> <dttm>                    <dbl>              <dbl>
    ##  1        1 May    2014 2014-05-16 00:00:00        4.31                 18
    ##  2        2 May    2014 2014-05-16 00:00:00        2.74                 13
    ##  3        3 May    2014 2014-05-16 00:00:00        3.45                 15
    ##  4        4 May    2014 2014-05-17 00:00:00        3.1                  15
    ##  5        5 May    2014 2014-05-17 00:00:00        4.06                 18
    ##  6        6 May    2014 2014-05-20 00:00:00        2.71                 13
    ##  7        7 May    2014 2014-05-21 00:00:00        1.91                  8
    ##  8        8 May    2014 2014-05-28 00:00:00        3.7                  16
    ##  9        9 June   2014 2014-06-05 00:00:00        2.52                 14
    ## 10       10 June   2014 2014-06-11 00:00:00        3.76                 18
    ## # … with 334 more rows, and 8 more variables: plastic_bottles <dbl>,
    ## #   polystyrene <dbl>, cigarette_butts <dbl>, glass_bottles <dbl>,
    ## #   grocery_bags <dbl>, chip_bags <dbl>, sports_balls <int>,
    ## #   homes_powered <dbl>
…
Next, combine precipitation datasets and convert month to a character
variable (the variable month.name is built into R and should be useful).

``` r
combined_precip = 
bind_rows(precip_2017, precip_2018) %>%
  mutate(month = month.name[month]) %>%
  relocate(month, year)
combined_precip
```

    ## # A tibble: 23 x 3
    ##    month     year  total
    ##    <chr>     <chr> <dbl>
    ##  1 January   2017   2.34
    ##  2 February  2017   1.46
    ##  3 March     2017   3.57
    ##  4 April     2017   3.99
    ##  5 May       2017   5.64
    ##  6 June      2017   1.4 
    ##  7 July      2017   7.09
    ##  8 August    2017   4.44
    ##  9 September 2017   1.95
    ## 10 November  2017   0.11
    ## # … with 13 more rows
…
